<?xml version="1.0" encoding="UTF-8"?>
<session version="1.0">
<refactoring comment="Delete resource &apos;Swing1&apos;" deleteContents="true" description="Delete resource &apos;Swing1&apos;" element1="/Swing1" flags="7" id="org.eclipse.ltk.core.refactoring.delete.resources" resources="1" stamp="1580118351295"/>
</session>