<?xml version="1.0" encoding="UTF-8"?>
<session version="1.0">
<refactoring accessors="true" comment="Delete element from project &apos;DataAnalyser&apos;&#x0A;- Original project: &apos;DataAnalyser&apos;&#x0A;- Original element: &apos;DataAnalyser/src/TP1.layout&apos;" description="Delete element" element1="/src&lt;TP1.layout" elements="1" flags="589830" id="org.eclipse.jdt.ui.delete" resources="0" stamp="1593877050791" subPackages="false" version="1.0"/>
</session>